<svg width="551" height="274" viewBox="0 0 551 274" xmlns="http://www.w3.org/2000/svg">
<path d="M275.396 273.292C253.196 273.292 230.996 264.729 214.187 247.92L7.41315 41.1465C-1.78391 31.9494 -1.78391 16.7267 7.41315 7.52963C16.6102 -1.66743 31.8329 -1.66743 41.03 7.52963L247.804 214.304C263.027 229.526 287.764 229.526 302.987 214.304L509.762 7.52963C518.959 -1.66743 534.182 -1.66743 543.379 7.52963C552.576 16.7267 552.576 31.9494 543.379 41.1465L336.604 247.92C319.795 264.729 297.595 273.292 275.396 273.292Z" fill="white"/>
</svg>
