<svg width="284" height="284" viewBox="0 0 284 284" xmlns="http://www.w3.org/2000/svg">
<path d="M53.5545 266.015H159.6C164.286 266.01 168.778 264.146 172.091 260.833C175.405 257.519 177.269 253.027 177.274 248.341V221.83H159.6V248.341H53.5545V36.2507H159.6V62.762H177.274V36.2507C177.269 31.5648 175.405 27.0725 172.091 23.7591C168.778 20.4457 164.286 18.5819 159.6 18.5765H53.5545C48.8686 18.5819 44.3762 20.4457 41.0628 23.7591C37.7495 27.0725 35.8856 31.5648 35.8802 36.2507V248.341C35.8856 253.027 37.7495 257.519 41.0628 260.833C44.3762 264.146 48.8686 266.01 53.5545 266.015Z" fill="white"/>
<path d="M182.452 182.823L214.142 151.133H88.9028V133.459H214.142L182.452 101.769L194.948 89.2733L247.971 142.296L194.948 195.319L182.452 182.823Z" fill="white"/>
</svg>
